Bird Baths by Saran O.
…
ℹ Use `spec()` to retrieve the full column specification for this data.
ℹ Specify the column types or set `show_col_types = FALSE` to quiet this message.

Before answering the question asked about data, we will load some datas that can be used later on while answering the questions above.

Birth_baths data summary:

In the data below the code summarize(bird_baths) would be used to load a summary of the data which include bioregions, survey_year, urban_rural, bird_type and bird_count.

bird_baths %>%
  summarise(bird_baths)

# A tibble: 161,057 × 5
   survey_year urban_rural bioregions               bird_type            bird_…¹
         <dbl> <chr>       <chr>                    <chr>                  <dbl>
 1        2014 Urban       South Eastern Queensland Bassian Thrush             0
 2        2014 Urban       South Eastern Queensland Chestnut-breasted M…       0
 3        2014 Urban       South Eastern Queensland Wild Duck                  0
 4        2014 Urban       South Eastern Queensland Willie Wagtail             0
 5        2014 Urban       South Eastern Queensland Regent Bowerbird           0
 6        2014 Urban       South Eastern Queensland Rufous Fantail             0
 7        2014 Urban       South Eastern Queensland Spiny-cheeked Honey…       0
 8        2014 Urban       South Eastern Queensland Flame Robin                0
 9        2014 Urban       South Eastern Queensland European Goldfinch         0
10        2014 Urban       South Eastern Queensland Noisy Friarbird            0
# … with 161,047 more rows, and abbreviated variable name ¹​bird_count

Bird_type data summary

In order to find the bird types in this data, we loaded the code count(bird_type) which gave a count of different type of birds that were found in the bird_baths=sum(bird_count)).

bird_baths %>%
  count(bird_type)

# A tibble: 169 × 2
   bird_type                   n
   <chr>                   <int>
 1 Apostlebird               953
 2 Australasian Figbird      953
 3 Australian Brush-turkey   953
 4 Australian King-parrot    953
 5 Australian Magpie         953
 6 Australian Raven          953
 7 Australian Ringneck       953
 8 Australian White Ibis     953
 9 Bar-shouldered Dove       953
10 Bassian Thrush            953
# … with 159 more rows
…
